{
  "content": [
    {
      "prisonerNumber": "A7089EY",
      "pncNumber": "12/394773H",
      "pncNumberCanonicalShort": "12/394773H",
      "pncNumberCanonicalLong": "2012/394773H",
      "croNumber": "29906/12J",
      "bookingId": "1900836",
      "bookNumber": "V61585",
      "firstName": "JOHN",
      "middleNames": "LEE",
      "lastName": "SMITH",
      "dateOfBirth": "1980-12-31",
      "gender": "Male",
      "ethnicity": "White: Eng./Welsh/Scot./N.Irish/British",
      "youthOffender": true,
      "maritalStatus": "Married",
      "religion": "Christian",
      "nationality": "British",
      "status": "ACTIVE IN",
      "lastMovementTypeCode": "ADM",
      "lastMovementReasonCode": "24",
      "inOutStatus": "IN",
      "prisonId": "MDI",
      "prisonName": "Moorland Prison",
      "cellLocation": "A-1-001",
      "aliases": [],
      "alerts": [
        {
          "alertType": "P",
          "alertCode": "PL1",
          "active": true,
          "expired": false
        },
        {
          "alertType": "H",
          "alertCode": "HC",
          "active": true,
          "expired": false
        },
        {
          "alertType": "X",
          "alertCode": "XSA",
          "active": true,
          "expired": false
        },
        {
          "alertType": "R",
          "alertCode": "RKS",
          "active": true,
          "expired": false
        },
        {
          "alertType": "R",
          "alertCode": "RSS",
          "active": true,
          "expired": false
        },
        {
          "alertType": "X",
          "alertCode": "XVL",
          "active": true,
          "expired": false
        },
        {
          "alertType": "O",
          "alertCode": "OCYP",
          "active": true,
          "expired": false
        },
        {
          "alertType": "V",
          "alertCode": "VU",
          "active": true,
          "expired": false
        }
      ],
      "csra": "High",
      "category": "C",
      "legalStatus": "SENTENCED",
      "imprisonmentStatus": "LASPO_DR",
      "mostSeriousOffence": "Handle stolen goods",
      "recall": false,
      "indeterminateSentence": true,
      "sentenceStartDate": "2016-09-09",
      "releaseDate": "2023-04-01",
      "confirmedReleaseDate": "2023-04-01",
      "sentenceExpiryDate": "2026-04-05",
      "licenceExpiryDate": "2026-04-15",
      "homeDetentionCurfewEligibilityDate": "2020-12-20",
      "homeDetentionCurfewActualDate": "2019-06-22",
      "homeDetentionCurfewEndDate": "2019-06-22",
      "additionalDaysAwarded": 27,
      "nonDtoReleaseDate": "2023-05-16",
      "nonDtoReleaseDateType": "CRD",
      "paroleEligibilityDate": "2020-12-30",
      "conditionalReleaseDate": "2023-05-16",
      "restrictedPatient": false
    },
    {
      "prisonerNumber": "A7089EZ",
      "pncNumber": "08/359381C",
      "pncNumberCanonicalShort": "08/359381C",
      "pncNumberCanonicalLong": "2008/359381C",
      "croNumber": "400862/08W",
      "bookingId": "1900837",
      "bookNumber": "38339C",
      "firstName": "JOHN",
      "lastName": "SMYTH",
      "dateOfBirth": "1981-01-01",
      "gender": "Male",
      "ethnicity": "White: Eng./Welsh/Scot./N.Irish/British",
      "youthOffender": false,
      "maritalStatus": "Single-not married/in civil partnership",
      "religion": "Church of England (Anglican)",
      "nationality": "British",
      "status": "ACTIVE IN",
      "lastMovementTypeCode": "ADM",
      "lastMovementReasonCode": "24",
      "inOutStatus": "IN",
      "prisonId": "LEI",
      "prisonName": "HMP Leeds",
      "cellLocation": "B-C1-010",
      "aliases": [
        {
          "firstName": "MASTER",
          "lastName": "CORDIAN",
          "dateOfBirth": "1990-08-15",
          "gender": "Male",
          "ethnicity": "White: Eng./Welsh/Scot./N.Irish/British"
        },
        {
          "firstName": "MASTER",
          "middleNames": "J117",
          "lastName": "CHIEF",
          "dateOfBirth": "1983-06-17",
          "gender": "Male"
        },
        {
          "firstName": "MASTER",
          "middleNames": "J117",
          "lastName": "CHEIF",
          "dateOfBirth": "1983-06-17",
          "gender": "Male"
        },
        {
          "firstName": "TONY",
          "middleNames": "IRONMAN",
          "lastName": "STARK",
          "dateOfBirth": "1970-05-29",
          "gender": "Male"
        }
      ],
      "alerts": [],
      "csra": "High",
      "category": "C",
      "legalStatus": "SENTENCED",
      "imprisonmentStatus": "LR_HDC",
      "mostSeriousOffence": "Burglary dwelling - with intent to steal",
      "releaseDate": "2020-04-28",
      "nonDtoReleaseDate": "2020-04-28",
      "nonDtoReleaseDateType": "CRD",
      "conditionalReleaseDate": "2020-04-28",
      "restrictedPatient": false
    },
    {
      "prisonerNumber": "A7090BA",
      "pncNumber": "08/359381C",
      "pncNumberCanonicalShort": "08/359381C",
      "pncNumberCanonicalLong": "2008/359381C",
      "croNumber": "400862/08W",
      "bookingId": "1902837",
      "bookNumber": "38239C",
      "firstName": "SAM",
      "lastName": "JONES",
      "dateOfBirth": "1945-10-10",
      "gender": "Male",
      "ethnicity": "White: Eng./Welsh/Scot./N.Irish/British",
      "youthOffender": false,
      "maritalStatus": "Single-not married/in civil partnership",
      "religion": "Church of England (Anglican)",
      "nationality": "British",
      "status": "ACTIVE IN",
      "lastMovementTypeCode": "ADM",
      "lastMovementReasonCode": "24",
      "inOutStatus": "IN",
      "prisonId": "LEI",
      "prisonName": "HMP Leeds",
      "cellLocation": "B-C1-010",
      "aliases": [
        {
          "firstName": "PHIL",
          "lastName": "BLACK",
          "dateOfBirth": "1990-08-15",
          "gender": "Male",
          "ethnicity": "White: Eng./Welsh/Scot./N.Irish/British"
        },
        {
          "firstName": "BOB",
          "middleNames": "J117",
          "lastName": "BLACK",
          "dateOfBirth": "1983-06-17",
          "gender": "Male"
        },
        {
          "firstName": "PHIL",
          "middleNames": "J117",
          "lastName": "WHITE",
          "dateOfBirth": "1983-06-17",
          "gender": "Male"
        },
        {
          "firstName": "CEDRIC",
          "middleNames": "STEELMAN",
          "lastName": "STRONGMAN",
          "dateOfBirth": "1970-05-29",
          "gender": "Male"
        }
      ],
      "alerts": [],
      "csra": "High",
      "category": "C",
      "legalStatus": "SENTENCED",
      "imprisonmentStatus": "LR_HDC",
      "releaseDate": "2020-04-28",
      "nonDtoReleaseDate": "2020-04-28",
      "nonDtoReleaseDateType": "CRD",
      "conditionalReleaseDate": "2020-04-28",
      "restrictedPatient": false
    },
    {
      "prisonerNumber": "A7090BD",
      "pncNumber": "12/394773W",
      "pncNumberCanonicalShort": "12/394773W",
      "pncNumberCanonicalLong": "2012/394773W",
      "croNumber": "29906/12L",
      "bookingId": "1902838",
      "bookNumber": "V61687",
      "firstName": "JAMES",
      "lastName": "BALL",
      "dateOfBirth": "1973-02-01",
      "gender": "Male",
      "ethnicity": "White: Eng./Welsh/Scot./N.Irish/British",
      "youthOffender": false,
      "religion": "Christian",
      "nationality": "British",
      "status": "ACTIVE IN",
      "lastMovementTypeCode": "ADM",
      "lastMovementReasonCode": "24",
      "inOutStatus": "IN",
      "prisonId": "LNI",
      "prisonName": "Moorland Prison",
      "cellLocation": "A-1-003",
      "legalStatus": "SENTENCED",
      "mostSeriousOffence": "Section 18 - wounding with intent",
      "recall": true,
      "indeterminateSentence": false,
      "licenceExpiryDate": "2020-02-03",
      "receptionDate": "2015-10-01",
      "paroleEligibilityDate": "2020-02-03",
      "automaticReleaseDate": "2020-02-03",
      "postRecallReleaseDate": "2020-02-03",
      "conditionalReleaseDate": "2020-02-03",
      "actualParoleDate": "2020-02-03",
      "restrictedPatient": false
    },
    {
      "prisonerNumber": "A7090BE",
      "bookingId": "1908838",
      "bookNumber": "V63588",
      "firstName": "BORIS",
      "lastName": "WEST",
      "dateOfBirth": "1985-03-15",
      "gender": "Male",
      "ethnicity": "White: Eng./Welsh/Scot./N.Irish/British",
      "youthOffender": false,
      "status": "ACTIVE IN",
      "lastMovementTypeCode": "ADM",
      "lastMovementReasonCode": "24",
      "inOutStatus": "IN",
      "prisonId": "LNI",
      "prisonName": "Low Newton Prison",
      "cellLocation": "H-1-004",
      "legalStatus": "REMAND",
      "licenceExpiryDate": "2020-02-03",
      "receptionDate": "2015-10-01",
      "paroleEligibilityDate": "2020-02-03",
      "automaticReleaseDate": "2020-02-03",
      "postRecallReleaseDate": "2020-02-03",
      "conditionalReleaseDate": "2020-02-03",
      "actualParoleDate": "2020-02-03",
      "restrictedPatient": false
    },
    {
      "prisonerNumber": "A7090BF",
      "pncNumber": "12/394773W",
      "pncNumberCanonicalShort": "12/394773W",
      "pncNumberCanonicalLong": "2012/394773W",
      "croNumber": "29906/12L",
      "bookingId": "1909838",
      "bookNumber": "V61587",
      "firstName": "FRANK",
      "lastName": "FELLOWS",
      "dateOfBirth": "1999-06-01",
      "gender": "Male",
      "ethnicity": "White: Eng./Welsh/Scot./N.Irish/British",
      "youthOffender": false,
      "status": "INACTIVE OUT",
      "lastMovementTypeCode": "REL",
      "lastMovementReasonCode": "HP",
      "inOutStatus": "OUT",
      "prisonId": "OUT",
      "prisonName": "Outside",
      "legalStatus": "SENTENCED",
      "mostSeriousOffence": "Section 18 - wounding with intent",
      "recall": false,
      "indeterminateSentence": false,
      "licenceExpiryDate": "2020-02-03",
      "receptionDate": "2015-10-01",
      "paroleEligibilityDate": "2020-02-03",
      "automaticReleaseDate": "2020-02-03",
      "postRecallReleaseDate": "2020-02-03",
      "conditionalReleaseDate": "2020-02-03",
      "actualParoleDate": "2020-02-03",
      "tariffDate": "2022-01-04",
      "locationDescription": "Outside - Psychiatric Hospital Discharge to Hazelwood House",
      "restrictedPatient": true,
      "supportingPrisonId": "MDI",
      "dischargedHospitalId": "HAZLWD",
      "dischargedHospitalDescription": "Hazelwood House",
      "dischargeDate": "2020-02-03",
      "dischargeDetails": "Psychiatric Hospital Discharge to Hazelwood House"
    },
    {
      "prisonerNumber": "A9999AA",
      "pncNumber": "2015/001234S",
      "pncNumberCanonicalShort": "15/1234S",
      "pncNumberCanonicalLong": "2015/1234S",
      "croNumber": "43252/15S",
      "bookingId": "1808231",
      "bookNumber": "V61587",
      "firstName": "PAUL",
      "lastName": "BOOTH",
      "dateOfBirth": "1976-03-01",
      "gender": "Male",
      "ethnicity": "White: Eng./Welsh/Scot./N.Irish/British",
      "youthOffender": false,
      "status": "ACTIVE IN",
      "lastMovementTypeCode": "ADM",
      "lastMovementReasonCode": "24",
      "inOutStatus": "IN",
      "prisonId": "WSI",
      "prisonName": "Wormwood Scrubs",
      "mostSeriousOffence": "Section 18 - wounding with intent",
      "recall": false,
      "indeterminateSentence": false,
      "licenceExpiryDate": "2020-02-03",
      "receptionDate": "2015-10-01",
      "paroleEligibilityDate": "2020-02-03",
      "automaticReleaseDate": "2020-02-03",
      "postRecallReleaseDate": "2020-02-03",
      "conditionalReleaseDate": "2020-02-03",
      "actualParoleDate": "2020-02-03",
      "locationDescription": "Wormwood Scrubs",
      "restrictedPatient": false
    },
    {
      "prisonerNumber": "A9999AB",
      "pncNumber": "89/004444S",
      "pncNumberCanonicalShort": "89/4444S",
      "pncNumberCanonicalLong": "1989/4444S",
      "croNumber": "43254/15S",
      "bookingId": "1808233",
      "bookNumber": "V61587",
      "firstName": "HAROLD",
      "lastName": "TIMS",
      "dateOfBirth": "1971-02-11",
      "gender": "Male",
      "ethnicity": "White: Eng./Welsh/Scot./N.Irish/British",
      "youthOffender": false,
      "status": "ACTIVE IN",
      "lastMovementTypeCode": "ADM",
      "lastMovementReasonCode": "24",
      "inOutStatus": "IN",
      "prisonId": "WSI",
      "prisonName": "Wormwood Scrubs",
      "mostSeriousOffence": "Section 18 - wounding with intent",
      "recall": false,
      "indeterminateSentence": false,
      "licenceExpiryDate": "2020-02-03",
      "receptionDate": "2015-10-01",
      "paroleEligibilityDate": "2020-02-03",
      "automaticReleaseDate": "2020-02-03",
      "postRecallReleaseDate": "2020-02-03",
      "conditionalReleaseDate": "2020-02-03",
      "actualParoleDate": "2020-02-03",
      "locationDescription": "Wormwood Scrubs",
      "restrictedPatient": false
    }
  ],
  "pageable": {
    "sort": {
      "empty": true,
      "sorted": false,
      "unsorted": true
    },
    "offset": 0,
    "pageNumber": 0,
    "pageSize": 8,
    "paged": true,
    "unpaged": false
  },
  "last": false,
  "totalPages": 2,
  "totalElements": 11,
  "first": true,
  "size": 8,
  "number": 0,
  "sort": {
    "empty": true,
    "sorted": false,
    "unsorted": true
  },
  "numberOfElements": 8,
  "empty": false
}