{
  "content": [
    {
      "prisonerNumber": "Z0017ZZ",
      "bookingId": "-17",
      "bookNumber": "Z00017",
      "firstName": "MICHEAL",
      "lastName": "PETERS",
      "dateOfBirth": "1972-01-01",
      "gender": "Male",
      "ethnicity": "White: British",
      "youthOffender": false,
      "status": "ACTIVE IN",
      "inOutStatus": "IN",
      "prisonId": "LEI",
      "prisonName": "Leeds",
      "cellLocation": "H-1",
      "aliases": [],
      "alerts": [],
      "recall": false,
      "indeterminateSentence": false,
      "sentenceStartDate": "2015-05-05",
      "releaseDate": "2018-01-16",
      "confirmedReleaseDate": "2018-01-16",
      "receptionDate": "1985-01-01",
      "locationDescription": "Leeds",
      "restrictedPatient": false
    },
    {
      "prisonerNumber": "Z0024ZZ",
      "bookingId": "-24",
      "bookNumber": "Z00024",
      "firstName": "LUCIUS",
      "lastName": "FOX",
      "dateOfBirth": "1958-01-01",
      "gender": "Male",
      "ethnicity": "White: British",
      "youthOffender": false,
      "status": "ACTIVE OUT",
      "inOutStatus": "OUT",
      "prisonId": "LEI",
      "prisonName": "Leeds",
      "cellLocation": "H-1",
      "aliases": [],
      "alerts": [],
      "legalStatus": "REMAND",
      "imprisonmentStatus": "TRL",
      "imprisonmentStatusDescription": "Committed to Crown Court for Trial",
      "recall": false,
      "indeterminateSentence": false,
      "sentenceStartDate": "2017-07-07",
      "releaseDate": "2022-02-02",
      "confirmedReleaseDate": "2022-02-02",
      "receptionDate": "2022-04-13",
      "actualParoleDate": "2022-06-06",
      "locationDescription": "Leeds",
      "restrictedPatient": false
    },
    {
      "prisonerNumber": "Z0025ZZ",
      "bookingId": "-25",
      "bookNumber": "Z00025",
      "firstName": "MATTHEW",
      "middleNames": "DAVID",
      "lastName": "SMITH",
      "dateOfBirth": "1974-01-01",
      "gender": "Male",
      "ethnicity": "White: British",
      "youthOffender": false,
      "status": "ACTIVE OUT",
      "inOutStatus": "OUT",
      "prisonId": "LEI",
      "prisonName": "Leeds",
      "cellLocation": "H-1",
      "aliases": [],
      "alerts": [],
      "recall": false,
      "indeterminateSentence": false,
      "sentenceStartDate": "2009-09-09",
      "releaseDate": "2023-03-03",
      "confirmedReleaseDate": "2023-03-03",
      "receptionDate": "2022-04-13",
      "actualParoleDate": "2019-09-08",
      "locationDescription": "Leeds",
      "restrictedPatient": false
    }
  ],
  "pageable": {
    "sort": {
      "empty": true,
      "sorted": false,
      "unsorted": true
    },
    "offset": 8,
    "pageNumber": 1,
    "pageSize": 8,
    "paged": true,
    "unpaged": false
  },
  "last": true,
  "totalElements": 11,
  "totalPages": 2,
  "first": false,
  "size": 8,
  "number": 1,
  "sort": {
    "empty": true,
    "sorted": false,
    "unsorted": true
  },
  "numberOfElements": 3,
  "empty": false
}