{
  "content": [
    {
      "prisonerNumber": "A7090BB",
      "pncNumber": "12/394773W",
      "croNumber": "29906/12L",
      "bookingId": "1904838",
      "bookNumber": "V61587",
      "firstName": "SAM",
      "lastName": "JONES",
      "dateOfBirth": "1990-02-01",
      "gender": "Male",
      "ethnicity": "White: Eng./Welsh/Scot./N.Irish/British",
      "youthOffender": false,
      "religion": "Christian",
      "nationality": "British",
      "status": "ACTIVE IN",
      "prisonId": "MDI",
      "prisonName": "Moorland Prison",
      "cellLocation": "A-1-003",
      "legalStatus": "REMAND"
    }
  ],
  "pageable": {
    "sort": {
      "sorted": true,
      "unsorted": false,
      "empty": false
    },
    "pageSize": 1,
    "pageNumber": 1,
    "offset": 1,
    "paged": true,
    "unpaged": false
  },
  "totalPages": 7,
  "totalElements": 7,
  "last": false,
  "number": 1,
  "size": 1,
  "numberOfElements": 1,
  "sort": {
    "sorted": true,
    "unsorted": false,
    "empty": false
  },
  "first": false,
  "empty": false
}
