{
  "content":[
    {
      "prisonerNumber":"A9999RC",
      "pncNumber":"12/394773W",
      "pncNumberCanonicalShort":"12/394773W",
      "pncNumberCanonicalLong":"2012/394773W",
      "croNumber":"29906/12L",
      "bookingId":"1999993",
      "bookNumber":"V61587",
      "firstName":"HOSP",
      "lastName":"PATIENTTWO",
      "dateOfBirth":"1999-06-01",
      "gender":"Male",
      "ethnicity":"White: Eng./Welsh/Scot./N.Irish/British",
      "youthOffender":false,
      "status":"INACTIVE OUT",
      "lastMovementTypeCode":"REL",
      "lastMovementReasonCode":"HP",
      "inOutStatus":"OUT",
      "prisonId":"OUT",
      "prisonName":"Outside",
      "aliases":[
        {
          "firstName":"PSYHOSP",
          "lastName":"PATIENTONE",
          "dateOfBirth":"1990-08-15",
          "gender":"Male",
          "ethnicity":"White: Eng./Welsh/Scot./N.Irish/British"
        }
      ],
      "legalStatus":"SENTENCED",
      "recall":false,
      "indeterminateSentence":false,
      "licenceExpiryDate":"2020-02-03",
      "receptionDate":"2015-10-01",
      "paroleEligibilityDate":"2020-02-03",
      "automaticReleaseDate":"2020-02-03",
      "postRecallReleaseDate":"2020-02-03",
      "conditionalReleaseDate":"2020-02-03",
      "actualParoleDate":"2020-02-03",
      "locationDescription":"Outside - Psychiatric Hospital Discharge to Yew Trees",
      "restrictedPatient":true,
      "supportingPrisonId":"DNI",
      "dischargedHospitalId":"YEWTHO",
      "dischargedHospitalDescription":"Yew Trees",
      "dischargeDate":"2020-02-06",
      "dischargeDetails":"Hospital Discharge to Yew Trees"
    }
  ],
  "pageable":{
    "sort":{
      "sorted":false,
      "unsorted":true,
      "empty":true
    },
    "offset":1,
    "pageSize":1,
    "pageNumber":1,
    "paged":true,
    "unpaged":false
  },
  "last":true,
  "totalElements":2,
  "totalPages":2,
  "size":1,
  "number":1,
  "sort":{
    "sorted":false,
    "unsorted":true,
    "empty":true
  },
  "numberOfElements":1,
  "first":false,
  "empty":false
}